<?xml version="1.0" encoding="utf-8"?>
<svg viewBox="0 0 100 100" xmlns="http://www.w3.org/2000/svg" xmlns:xlink="http://www.w3.org/1999/xlink" >
<path d="M100,19c-3.7,1.6-7.6,2.7-11.8,3.2c4.2-2.5,7.5-6.6,9-11.3c-4,2.3-8.4,4.1-13,5c-3.7-4-9.1-6.5-15-6.5c-11.3,0-20.5,9.2-20.5,20.5c0,1.6,0.2,3.2,0.5,4.7c-17-0.9-32.2-9-42.3-21.4c-1.8,3-2.8,6.5-2.8,10.3c0,7.1,3.6,13.4,9.1,17.1c-3.4-0.1-6.5-1-9.3-2.6v0.3c0,9.9,7.1,18.2,16.5,20.1c-1.7,0.5-3.5,0.7-5.4,0.7c-1.3,0-2.6-0.1-3.9-0.4c2.6,8.2,10.2,14.1,19.2,14.2c-7,5.5-15.9,8.8-25.5,8.8c-1.7,0-3.3-0.1-4.9-0.3c9.1,5.8,19.9,9.2,31.4,9.2c37.7,0,58.4-31.3,58.4-58.4l-0.1-2.7C93.8,26.7,97.3,23.1,100,19z" />
</svg>
